<svg width="7" height="12" viewBox="0 0 7 12" fill="none" xmlns="http://www.w3.org/2000/svg">
<path d="M5.18253 1.99219C4.9098 1.99219 4.6901 2.03906 4.52344 2.13281C4.37192 2.22656 4.27344 2.34375 4.22798 2.48438C4.18253 2.625 4.1598 2.80469 4.1598 3.02344V4.5H6.09162L5.81889 6.63281H4.1598V12H2.02344V6.63281H0.273438V4.5H2.02344V2.8125C2.02344 1.92188 2.26586 1.23438 2.75071 0.75C3.23556 0.25 3.8795 0 4.68253 0C5.33404 0 5.86435 0.03125 6.27344 0.09375V1.99219H5.18253Z" fill="#ad9f9f"/>
</svg>
