<svg width="9" height="18" viewBox="0 0 9 18" fill="none" xmlns="http://www.w3.org/2000/svg">
<path d="M7.36364 2.98828C6.95455 2.98828 6.625 3.05859 6.375 3.19922C6.14773 3.33984 6 3.51562 5.93182 3.72656C5.86364 3.9375 5.82955 4.20703 5.82955 4.53516V6.75H8.72727L8.31818 9.94922H5.82955V18H2.625V9.94922H0V6.75H2.625V4.21875C2.625 2.88281 2.98864 1.85156 3.71591 1.125C4.44318 0.375 5.40909 0 6.61364 0C7.59091 0 8.38636 0.046875 9 0.140625V2.98828H7.36364Z" fill="white"/>
</svg>
