<svg width="25" height="17" viewBox="0 0 25 17" fill="none" xmlns="http://www.w3.org/2000/svg">
<path fill-rule="evenodd" clip-rule="evenodd" d="M0 4.24264L4.24264 0L12.1213 7.87868L20 0L24.2426 4.24264L12.1213 16.364L0 4.24264Z" fill="#F53800"/>
</svg>
